  0
SECTION
  2
HEADER
  9
$ACADVER
  1
AC1014
  9
$HANDSEED
  5
FFFF
  9
$MEASUREMENT
 70
     1
  0
ENDSEC
  0
SECTION
  2
TABLES
  0
TABLE
  2
VPORT
  5
8
330
0
100
AcDbSymbolTable
 70
     4
  0
VPORT
  5
2E
330
8
100
AcDbSymbolTableRecord
100
AcDbViewportTableRecord
  2
*ACTIVE
 70
     0
 10
0.0
 20
0.0
 11
1.0
 21
1.0
 12
210.0
 22
148.5
 13
0.0
 23
0.0
 14
10.0
 24
10.0
 15
10.0
 25
10.0
 16
0.0
 26
0.0
 36
1.0
 17
0.0
 27
0.0
 37
0.0
 40
341.0
 41
1.24
 42
50.0
 43
0.0
 44
0.0
 50
0.0
 51
0.0
 71
     0
 72
   100
 73
     1
 74
     3
 75
     0
 76
     0
 77
     0
 78
     0
  0
ENDTAB
  0
TABLE
  2
LTYPE
  5
5
330
0
100
AcDbSymbolTable
 70
     1
  0
LTYPE
  5
14
330
5
100
AcDbSymbolTableRecord
100
AcDbLinetypeTableRecord
  2
BYBLOCK
 70
     0
  3

 72
    65
 73
     0
 40
0.0
  0
LTYPE
  5
15
330
5
100
AcDbSymbolTableRecord
100
AcDbLinetypeTableRecord
  2
BYLAYER
 70
     0
  3

 72
    65
 73
     0
 40
0.0
  0
LTYPE
  5
16
330
5
100
AcDbSymbolTableRecord
100
AcDbLinetypeTableRecord
  2
CONTINUOUS
 70
     0
  3
Solid line
 72
    65
 73
     0
 40
0.0
  0
ENDTAB
  0
TABLE
  2
LAYER
  5
2
100
AcDbSymbolTable
 70
1
  0
LAYER
  5
50
100
AcDbSymbolTableRecord
100
AcDbLayerTableRecord
  2
0
 70
0
  6
CONTINUOUS
  0
ENDTAB
  0
TABLE
  2
STYLE
  5
3
330
0
100
AcDbSymbolTable
 70
     1
  0
STYLE
  5
11
330
3
100
AcDbSymbolTableRecord
100
AcDbTextStyleTableRecord
  2
STANDARD
 70
     0
 40
0.0
 41
1.0
 50
0.0
 71
     0
 42
2.5
  3
txt
  4

  0
ENDTAB
  0
TABLE
  2
VIEW
  5
6
330
0
100
AcDbSymbolTable
 70
     0
  0
ENDTAB
  0
TABLE
  2
UCS
  5
7
330
0
100
AcDbSymbolTable
 70
     0
  0
ENDTAB
  0
TABLE
  2
APPID
  5
9
330
0
100
AcDbSymbolTable
 70
     2
  0
APPID
  5
12
330
9
100
AcDbSymbolTableRecord
100
AcDbRegAppTableRecord
  2
ACAD
 70
     0
  0
ENDTAB
  0
TABLE
  2
DIMSTYLE
  5
A
330
0
100
AcDbSymbolTable
 70
     1
  0
DIMSTYLE
105
27
330
A
100
AcDbSymbolTableRecord
100
AcDbDimStyleTableRecord
  2
ISO-25
 70
     0
  3

  4

  5

  6

  7

 40
1.0
 41
2.5
 42
0.625
 43
3.75
 44
1.25
 45
0.0
 46
0.0
 47
0.0
 48
0.0
140
2.5
141
2.5
142
0.0
143
0.03937007874016
144
1.0
145
0.0
146
1.0
147
0.625
 71
     0
 72
     0
 73
     0
 74
     0
 75
     0
 76
     0
 77
     1
 78
     8
170
     0
171
     3
172
     1
173
     0
174
     0
175
     0
176
     0
177
     0
178
     0
270
     2
271
     2
272
     2
273
     2
274
     3
340
11
275
     0
280
     0
281
     0
282
     0
283
     0
284
     8
285
     0
286
     0
287
     3
288
     0
  0
ENDTAB
  0
TABLE
  2
BLOCK_RECORD
  5
1
330
0
100
AcDbSymbolTable
 70
     1
  0
BLOCK_RECORD
  5
1F
330
1
100
AcDbSymbolTableRecord
100
AcDbBlockTableRecord
  2
*MODEL_SPACE
  0
BLOCK_RECORD
  5
1B
330
1
100
AcDbSymbolTableRecord
100
AcDbBlockTableRecord
  2
*PAPER_SPACE
  0
ENDTAB
  0
ENDSEC
  0
SECTION
  2
BLOCKS
  0
BLOCK
  5
20
330
1F
100
AcDbEntity
  8
0
100
AcDbBlockBegin
  2
*MODEL_SPACE
 70
     0
 10
0.0
 20
0.0
 30
0.0
  3
*MODEL_SPACE
  1

  0
ENDBLK
  5
21
330
1F
100
AcDbEntity
  8
0
100
AcDbBlockEnd
  0
BLOCK
  5
1C
330
1B
100
AcDbEntity
 67
     1
  8
0
100
AcDbBlockBegin
  2
*PAPER_SPACE
  1

  0
ENDBLK
  5
1D
330
1B
100
AcDbEntity
 67
     1
  8
0
100
AcDbBlockEnd
  0
ENDSEC
  0
SECTION
  2
ENTITIES
  0
SPLINE
  5
100
100
AcDbEntity
  8
0
 62
7
100
AcDbSpline
 70
8
 71
3
 72
8
 73
4
 74
0
 40
0
 40
0
 40
0
 40
0
 40
1
 40
1
 40
1
 40
1
 10
-15.750000
 20
18.000000
 30
0.0
 10
-15.750000
 20
18.803848
 30
0.0
 10
-16.178848
 20
19.546633
 30
0.0
 10
-16.875000
 20
19.948557
 30
0.0
  0
SPLINE
  5
101
100
AcDbEntity
  8
0
 62
7
100
AcDbSpline
 70
8
 71
3
 72
8
 73
4
 74
0
 40
0
 40
0
 40
0
 40
0
 40
1
 40
1
 40
1
 40
1
 10
-16.875000
 20
19.948557
 30
0.0
 10
-17.571153
 20
20.350481
 30
0.0
 10
-18.428848
 20
20.350481
 30
0.0
 10
-19.125000
 20
19.948557
 30
0.0
  0
SPLINE
  5
102
100
AcDbEntity
  8
0
 62
7
100
AcDbSpline
 70
8
 71
3
 72
8
 73
4
 74
0
 40
0
 40
0
 40
0
 40
0
 40
1
 40
1
 40
1
 40
1
 10
-19.125000
 20
19.948557
 30
0.0
 10
-19.821153
 20
19.546633
 30
0.0
 10
-20.250000
 20
18.803848
 30
0.0
 10
-20.250000
 20
18.000000
 30
0.0
  0
SPLINE
  5
103
100
AcDbEntity
  8
0
 62
7
100
AcDbSpline
 70
8
 71
3
 72
8
 73
4
 74
0
 40
0
 40
0
 40
0
 40
0
 40
1
 40
1
 40
1
 40
1
 10
-20.250000
 20
18.000000
 30
0.0
 10
-20.250000
 20
17.196152
 30
0.0
 10
-19.821153
 20
16.453367
 30
0.0
 10
-19.125000
 20
16.051443
 30
0.0
  0
SPLINE
  5
104
100
AcDbEntity
  8
0
 62
7
100
AcDbSpline
 70
8
 71
3
 72
8
 73
4
 74
0
 40
0
 40
0
 40
0
 40
0
 40
1
 40
1
 40
1
 40
1
 10
-19.125000
 20
16.051443
 30
0.0
 10
-18.428848
 20
15.649519
 30
0.0
 10
-17.571153
 20
15.649519
 30
0.0
 10
-16.875000
 20
16.051443
 30
0.0
  0
SPLINE
  5
105
100
AcDbEntity
  8
0
 62
7
100
AcDbSpline
 70
8
 71
3
 72
8
 73
4
 74
0
 40
0
 40
0
 40
0
 40
0
 40
1
 40
1
 40
1
 40
1
 10
-16.875000
 20
16.051443
 30
0.0
 10
-16.178848
 20
16.453367
 30
0.0
 10
-15.750000
 20
17.196152
 30
0.0
 10
-15.750000
 20
18.000000
 30
0.0
  0
LINE
  5
106
100
AcDbEntity
  8
0
 62
7
100
AcDbLine
 10
-15.750000
 20
18.000000
 30
0.0
 11
-15.750000
 21
18.000000
 31
0.0
  0
SPLINE
  5
107
100
AcDbEntity
  8
0
 62
7
100
AcDbSpline
 70
8
 71
3
 72
8
 73
4
 74
0
 40
0
 40
0
 40
0
 40
0
 40
1
 40
1
 40
1
 40
1
 10
-15.750000
 20
-18.000000
 30
0.0
 10
-15.750000
 20
-17.196152
 30
0.0
 10
-16.178848
 20
-16.453367
 30
0.0
 10
-16.875000
 20
-16.051443
 30
0.0
  0
SPLINE
  5
108
100
AcDbEntity
  8
0
 62
7
100
AcDbSpline
 70
8
 71
3
 72
8
 73
4
 74
0
 40
0
 40
0
 40
0
 40
0
 40
1
 40
1
 40
1
 40
1
 10
-16.875000
 20
-16.051443
 30
0.0
 10
-17.571153
 20
-15.649519
 30
0.0
 10
-18.428848
 20
-15.649519
 30
0.0
 10
-19.125000
 20
-16.051443
 30
0.0
  0
SPLINE
  5
109
100
AcDbEntity
  8
0
 62
7
100
AcDbSpline
 70
8
 71
3
 72
8
 73
4
 74
0
 40
0
 40
0
 40
0
 40
0
 40
1
 40
1
 40
1
 40
1
 10
-19.125000
 20
-16.051443
 30
0.0
 10
-19.821153
 20
-16.453367
 30
0.0
 10
-20.250000
 20
-17.196152
 30
0.0
 10
-20.250000
 20
-18.000000
 30
0.0
  0
SPLINE
  5
10a
100
AcDbEntity
  8
0
 62
7
100
AcDbSpline
 70
8
 71
3
 72
8
 73
4
 74
0
 40
0
 40
0
 40
0
 40
0
 40
1
 40
1
 40
1
 40
1
 10
-20.250000
 20
-18.000000
 30
0.0
 10
-20.250000
 20
-18.803848
 30
0.0
 10
-19.821153
 20
-19.546633
 30
0.0
 10
-19.125000
 20
-19.948557
 30
0.0
  0
SPLINE
  5
10b
100
AcDbEntity
  8
0
 62
7
100
AcDbSpline
 70
8
 71
3
 72
8
 73
4
 74
0
 40
0
 40
0
 40
0
 40
0
 40
1
 40
1
 40
1
 40
1
 10
-19.125000
 20
-19.948557
 30
0.0
 10
-18.428848
 20
-20.350481
 30
0.0
 10
-17.571153
 20
-20.350481
 30
0.0
 10
-16.875000
 20
-19.948557
 30
0.0
  0
SPLINE
  5
10c
100
AcDbEntity
  8
0
 62
7
100
AcDbSpline
 70
8
 71
3
 72
8
 73
4
 74
0
 40
0
 40
0
 40
0
 40
0
 40
1
 40
1
 40
1
 40
1
 10
-16.875000
 20
-19.948557
 30
0.0
 10
-16.178848
 20
-19.546633
 30
0.0
 10
-15.750000
 20
-18.803848
 30
0.0
 10
-15.750000
 20
-18.000000
 30
0.0
  0
LINE
  5
10d
100
AcDbEntity
  8
0
 62
7
100
AcDbLine
 10
-15.750000
 20
-18.000000
 30
0.0
 11
-15.750000
 21
-18.000000
 31
0.0
  0
SPLINE
  5
10e
100
AcDbEntity
  8
0
 62
7
100
AcDbSpline
 70
8
 71
3
 72
8
 73
4
 74
0
 40
0
 40
0
 40
0
 40
0
 40
1
 40
1
 40
1
 40
1
 10
16.389284
 20
17.418650
 30
0.0
 10
16.129549
 20
17.410905
 30
0.0
 10
15.883026
 20
17.302373
 30
0.0
 10
15.701918
 20
17.116034
 30
0.0
  0
SPLINE
  5
10f
100
AcDbEntity
  8
0
 62
7
100
AcDbSpline
 70
8
 71
3
 72
8
 73
4
 74
0
 40
0
 40
0
 40
0
 40
0
 40
1
 40
1
 40
1
 40
1
 10
15.701918
 20
17.116034
 30
0.0
 10
15.701918
 20
17.116034
 30
0.0
 10
2.828285
 20
4.242394
 30
0.0
 10
2.828285
 20
4.242394
 30
0.0
  0
SPLINE
  5
110
100
AcDbEntity
  8
0
 62
7
100
AcDbSpline
 70
8
 71
3
 72
8
 73
4
 74
0
 40
0
 40
0
 40
0
 40
0
 40
1
 40
1
 40
1
 40
1
 10
2.828285
 20
4.242394
 30
0.0
 10
2.568221
 20
3.991272
 30
0.0
 10
2.463927
 20
3.619346
 30
0.0
 10
2.555504
 20
3.269617
 30
0.0
  0
SPLINE
  5
111
100
AcDbEntity
  8
0
 62
7
100
AcDbSpline
 70
8
 71
3
 72
8
 73
4
 74
0
 40
0
 40
0
 40
0
 40
0
 40
1
 40
1
 40
1
 40
1
 10
2.555504
 20
3.269617
 30
0.0
 10
2.647082
 20
2.919889
 30
0.0
 10
2.920272
 20
2.646809
 30
0.0
 10
3.270037
 20
2.555372
 30
0.0
  0
SPLINE
  5
112
100
AcDbEntity
  8
0
 62
7
100
AcDbSpline
 70
8
 71
3
 72
8
 73
4
 74
0
 40
0
 40
0
 40
0
 40
0
 40
1
 40
1
 40
1
 40
1
 10
3.270037
 20
2.555372
 30
0.0
 10
3.619802
 20
2.463936
 30
0.0
 10
3.991686
 20
2.568379
 30
0.0
 10
4.242704
 20
2.828545
 30
0.0
  0
SPLINE
  5
113
100
AcDbEntity
  8
0
 62
7
100
AcDbSpline
 70
8
 71
3
 72
8
 73
4
 74
0
 40
0
 40
0
 40
0
 40
0
 40
1
 40
1
 40
1
 40
1
 10
4.242704
 20
2.828545
 30
0.0
 10
4.242704
 20
2.828545
 30
0.0
 10
17.116337
 20
15.702166
 30
0.0
 10
17.116337
 20
15.702166
 30
0.0
  0
SPLINE
  5
114
100
AcDbEntity
  8
0
 62
7
100
AcDbSpline
 70
8
 71
3
 72
8
 73
4
 74
0
 40
0
 40
0
 40
0
 40
0
 40
1
 40
1
 40
1
 40
1
 10
17.116337
 20
15.702166
 30
0.0
 10
17.411936
 20
15.989753
 30
0.0
 10
17.500687
 20
16.429302
 30
0.0
 10
17.339835
 20
16.809054
 30
0.0
  0
SPLINE
  5
115
100
AcDbEntity
  8
0
 62
7
100
AcDbSpline
 70
8
 71
3
 72
8
 73
4
 74
0
 40
0
 40
0
 40
0
 40
0
 40
1
 40
1
 40
1
 40
1
 10
17.339835
 20
16.809054
 30
0.0
 10
17.178983
 20
17.188807
 30
0.0
 10
16.801517
 20
17.430879
 30
0.0
 10
16.389284
 20
17.418650
 30
0.0
  0
LINE
  5
116
100
AcDbEntity
  8
0
 62
7
100
AcDbLine
 10
16.389284
 20
17.418650
 30
0.0
 11
16.389284
 21
17.418650
 31
0.0
  0
SPLINE
  5
117
100
AcDbEntity
  8
0
 62
7
100
AcDbSpline
 70
8
 71
3
 72
8
 73
4
 74
0
 40
0
 40
0
 40
0
 40
0
 40
1
 40
1
 40
1
 40
1
 10
19.999744
 20
20.999897
 30
0.0
 10
19.637803
 20
21.007048
 30
0.0
 10
19.300254
 20
20.818047
 30
0.0
 10
19.117188
 20
20.505735
 30
0.0
  0
SPLINE
  5
118
100
AcDbEntity
  8
0
 62
7
100
AcDbSpline
 70
8
 71
3
 72
8
 73
4
 74
0
 40
0
 40
0
 40
0
 40
0
 40
1
 40
1
 40
1
 40
1
 10
19.117188
 20
20.505735
 30
0.0
 10
18.934122
 20
20.193423
 30
0.0
 10
18.934122
 20
19.806562
 30
0.0
 10
19.117188
 20
19.494250
 30
0.0
  0
SPLINE
  5
119
100
AcDbEntity
  8
0
 62
7
100
AcDbSpline
 70
8
 71
3
 72
8
 73
4
 74
0
 40
0
 40
0
 40
0
 40
0
 40
1
 40
1
 40
1
 40
1
 10
19.117188
 20
19.494250
 30
0.0
 10
19.300254
 20
19.181938
 30
0.0
 10
19.637803
 20
18.992937
 30
0.0
 10
19.999744
 20
19.000088
 30
0.0
  0
SPLINE
  5
11a
100
AcDbEntity
  8
0
 62
7
100
AcDbSpline
 70
8
 71
3
 72
8
 73
4
 74
0
 40
0
 40
0
 40
0
 40
0
 40
1
 40
1
 40
1
 40
1
 10
19.999744
 20
19.000088
 30
0.0
 10
19.999744
 20
19.000088
 30
0.0
 10
29.999892
 20
19.000088
 30
0.0
 10
29.999892
 20
19.000088
 30
0.0
  0
SPLINE
  5
11b
100
AcDbEntity
  8
0
 62
7
100
AcDbSpline
 70
8
 71
3
 72
8
 73
4
 74
0
 40
0
 40
0
 40
0
 40
0
 40
1
 40
1
 40
1
 40
1
 10
29.999892
 20
19.000088
 30
0.0
 10
30.361832
 20
18.992937
 30
0.0
 10
30.699382
 20
19.181938
 30
0.0
 10
30.882448
 20
19.494250
 30
0.0
  0
SPLINE
  5
11c
100
AcDbEntity
  8
0
 62
7
100
AcDbSpline
 70
8
 71
3
 72
8
 73
4
 74
0
 40
0
 40
0
 40
0
 40
0
 40
1
 40
1
 40
1
 40
1
 10
30.882448
 20
19.494250
 30
0.0
 10
31.065513
 20
19.806562
 30
0.0
 10
31.065513
 20
20.193423
 30
0.0
 10
30.882448
 20
20.505735
 30
0.0
  0
SPLINE
  5
11d
100
AcDbEntity
  8
0
 62
7
100
AcDbSpline
 70
8
 71
3
 72
8
 73
4
 74
0
 40
0
 40
0
 40
0
 40
0
 40
1
 40
1
 40
1
 40
1
 10
30.882448
 20
20.505735
 30
0.0
 10
30.699382
 20
20.818047
 30
0.0
 10
30.361832
 20
21.007048
 30
0.0
 10
29.999892
 20
20.999897
 30
0.0
  0
LINE
  5
11e
100
AcDbEntity
  8
0
 62
7
100
AcDbLine
 10
29.999892
 20
20.999897
 30
0.0
 11
19.999744
 21
20.999897
 31
0.0
  0
LINE
  5
11f
100
AcDbEntity
  8
0
 62
7
100
AcDbLine
 10
19.999744
 20
20.999897
 30
0.0
 11
19.999744
 21
20.999897
 31
0.0
  0
SPLINE
  5
120
100
AcDbEntity
  8
0
 62
7
100
AcDbSpline
 70
8
 71
3
 72
8
 73
4
 74
0
 40
0
 40
0
 40
0
 40
0
 40
1
 40
1
 40
1
 40
1
 10
19.999744
 20
-19.000130
 30
0.0
 10
19.637904
 20
-18.993138
 30
0.0
 10
19.300517
 20
-19.182176
 30
0.0
 10
19.117549
 20
-19.494426
 30
0.0
  0
SPLINE
  5
121
100
AcDbEntity
  8
0
 62
7
100
AcDbSpline
 70
8
 71
3
 72
8
 73
4
 74
0
 40
0
 40
0
 40
0
 40
0
 40
1
 40
1
 40
1
 40
1
 10
19.117549
 20
-19.494426
 30
0.0
 10
18.934580
 20
-19.806675
 30
0.0
 10
18.934580
 20
-20.193412
 30
0.0
 10
19.117549
 20
-20.505661
 30
0.0
  0
SPLINE
  5
122
100
AcDbEntity
  8
0
 62
7
100
AcDbSpline
 70
8
 71
3
 72
8
 73
4
 74
0
 40
0
 40
0
 40
0
 40
0
 40
1
 40
1
 40
1
 40
1
 10
19.117549
 20
-20.505661
 30
0.0
 10
19.300517
 20
-20.817910
 30
0.0
 10
19.637904
 20
-21.006949
 30
0.0
 10
19.999744
 20
-20.999957
 30
0.0
  0
LINE
  5
123
100
AcDbEntity
  8
0
 62
7
100
AcDbLine
 10
19.999744
 20
-20.999957
 30
0.0
 11
29.999892
 21
-20.999957
 31
0.0
  0
SPLINE
  5
124
100
AcDbEntity
  8
0
 62
7
100
AcDbSpline
 70
8
 71
3
 72
8
 73
4
 74
0
 40
0
 40
0
 40
0
 40
0
 40
1
 40
1
 40
1
 40
1
 10
29.999892
 20
-20.999957
 30
0.0
 10
30.361732
 20
-21.006949
 30
0.0
 10
30.699119
 20
-20.817910
 30
0.0
 10
30.882087
 20
-20.505661
 30
0.0
  0
SPLINE
  5
125
100
AcDbEntity
  8
0
 62
7
100
AcDbSpline
 70
8
 71
3
 72
8
 73
4
 74
0
 40
0
 40
0
 40
0
 40
0
 40
1
 40
1
 40
1
 40
1
 10
30.882087
 20
-20.505661
 30
0.0
 10
31.065056
 20
-20.193412
 30
0.0
 10
31.065056
 20
-19.806675
 30
0.0
 10
30.882087
 20
-19.494426
 30
0.0
  0
SPLINE
  5
126
100
AcDbEntity
  8
0
 62
7
100
AcDbSpline
 70
8
 71
3
 72
8
 73
4
 74
0
 40
0
 40
0
 40
0
 40
0
 40
1
 40
1
 40
1
 40
1
 10
30.882087
 20
-19.494426
 30
0.0
 10
30.699119
 20
-19.182176
 30
0.0
 10
30.361732
 20
-18.993138
 30
0.0
 10
29.999892
 20
-19.000130
 30
0.0
  0
LINE
  5
127
100
AcDbEntity
  8
0
 62
7
100
AcDbLine
 10
29.999892
 20
-19.000130
 30
0.0
 11
19.999744
 21
-19.000130
 31
0.0
  0
LINE
  5
128
100
AcDbEntity
  8
0
 62
7
100
AcDbLine
 10
19.999744
 20
-19.000130
 30
0.0
 11
19.999744
 21
-19.000130
 31
0.0
  0
SPLINE
  5
129
100
AcDbEntity
  8
0
 62
7
100
AcDbSpline
 70
8
 71
3
 72
8
 73
4
 74
0
 40
0
 40
0
 40
0
 40
0
 40
1
 40
1
 40
1
 40
1
 10
-36.825000
 20
-0.000000
 30
0.0
 10
-36.825000
 20
1.134318
 30
0.0
 10
-37.430151
 20
2.182471
 30
0.0
 10
-38.412500
 20
2.749631
 30
0.0
  0
SPLINE
  5
12a
100
AcDbEntity
  8
0
 62
7
100
AcDbSpline
 70
8
 71
3
 72
8
 73
4
 74
0
 40
0
 40
0
 40
0
 40
0
 40
1
 40
1
 40
1
 40
1
 10
-38.412500
 20
2.749631
 30
0.0
 10
-39.394848
 20
3.316790
 30
0.0
 10
-40.605151
 20
3.316790
 30
0.0
 10
-41.587500
 20
2.749631
 30
0.0
  0
SPLINE
  5
12b
100
AcDbEntity
  8
0
 62
7
100
AcDbSpline
 70
8
 71
3
 72
8
 73
4
 74
0
 40
0
 40
0
 40
0
 40
0
 40
1
 40
1
 40
1
 40
1
 10
-41.587500
 20
2.749631
 30
0.0
 10
-42.569848
 20
2.182471
 30
0.0
 10
-43.175000
 20
1.134318
 30
0.0
 10
-43.175000
 20
-0.000000
 30
0.0
  0
SPLINE
  5
12c
100
AcDbEntity
  8
0
 62
7
100
AcDbSpline
 70
8
 71
3
 72
8
 73
4
 74
0
 40
0
 40
0
 40
0
 40
0
 40
1
 40
1
 40
1
 40
1
 10
-43.175000
 20
-0.000000
 30
0.0
 10
-43.175000
 20
-1.134318
 30
0.0
 10
-42.569848
 20
-2.182472
 30
0.0
 10
-41.587500
 20
-2.749631
 30
0.0
  0
SPLINE
  5
12d
100
AcDbEntity
  8
0
 62
7
100
AcDbSpline
 70
8
 71
3
 72
8
 73
4
 74
0
 40
0
 40
0
 40
0
 40
0
 40
1
 40
1
 40
1
 40
1
 10
-41.587500
 20
-2.749631
 30
0.0
 10
-40.605151
 20
-3.316790
 30
0.0
 10
-39.394848
 20
-3.316790
 30
0.0
 10
-38.412500
 20
-2.749631
 30
0.0
  0
SPLINE
  5
12e
100
AcDbEntity
  8
0
 62
7
100
AcDbSpline
 70
8
 71
3
 72
8
 73
4
 74
0
 40
0
 40
0
 40
0
 40
0
 40
1
 40
1
 40
1
 40
1
 10
-38.412500
 20
-2.749631
 30
0.0
 10
-37.430151
 20
-2.182472
 30
0.0
 10
-36.825000
 20
-1.134318
 30
0.0
 10
-36.825000
 20
-0.000000
 30
0.0
  0
LINE
  5
12f
100
AcDbEntity
  8
0
 62
7
100
AcDbLine
 10
-36.825000
 20
-0.000000
 30
0.0
 11
-36.825000
 21
-0.000000
 31
0.0
  0
SPLINE
  5
130
100
AcDbEntity
  8
0
 62
7
100
AcDbSpline
 70
8
 71
3
 72
8
 73
4
 74
0
 40
0
 40
0
 40
0
 40
0
 40
1
 40
1
 40
1
 40
1
 10
-47.750000
 20
30.000000
 30
0.0
 10
-47.750000
 20
30.803848
 30
0.0
 10
-48.178847
 20
31.546633
 30
0.0
 10
-48.875000
 20
31.948557
 30
0.0
  0
SPLINE
  5
131
100
AcDbEntity
  8
0
 62
7
100
AcDbSpline
 70
8
 71
3
 72
8
 73
4
 74
0
 40
0
 40
0
 40
0
 40
0
 40
1
 40
1
 40
1
 40
1
 10
-48.875000
 20
31.948557
 30
0.0
 10
-49.571152
 20
32.350481
 30
0.0
 10
-50.428847
 20
32.350481
 30
0.0
 10
-51.125000
 20
31.948557
 30
0.0
  0
SPLINE
  5
132
100
AcDbEntity
  8
0
 62
7
100
AcDbSpline
 70
8
 71
3
 72
8
 73
4
 74
0
 40
0
 40
0
 40
0
 40
0
 40
1
 40
1
 40
1
 40
1
 10
-51.125000
 20
31.948557
 30
0.0
 10
-51.821152
 20
31.546633
 30
0.0
 10
-52.250000
 20
30.803848
 30
0.0
 10
-52.250000
 20
30.000000
 30
0.0
  0
SPLINE
  5
133
100
AcDbEntity
  8
0
 62
7
100
AcDbSpline
 70
8
 71
3
 72
8
 73
4
 74
0
 40
0
 40
0
 40
0
 40
0
 40
1
 40
1
 40
1
 40
1
 10
-52.250000
 20
30.000000
 30
0.0
 10
-52.250000
 20
29.196152
 30
0.0
 10
-51.821152
 20
28.453367
 30
0.0
 10
-51.125000
 20
28.051443
 30
0.0
  0
SPLINE
  5
134
100
AcDbEntity
  8
0
 62
7
100
AcDbSpline
 70
8
 71
3
 72
8
 73
4
 74
0
 40
0
 40
0
 40
0
 40
0
 40
1
 40
1
 40
1
 40
1
 10
-51.125000
 20
28.051443
 30
0.0
 10
-50.428847
 20
27.649519
 30
0.0
 10
-49.571152
 20
27.649519
 30
0.0
 10
-48.875000
 20
28.051443
 30
0.0
  0
SPLINE
  5
135
100
AcDbEntity
  8
0
 62
7
100
AcDbSpline
 70
8
 71
3
 72
8
 73
4
 74
0
 40
0
 40
0
 40
0
 40
0
 40
1
 40
1
 40
1
 40
1
 10
-48.875000
 20
28.051443
 30
0.0
 10
-48.178847
 20
28.453367
 30
0.0
 10
-47.750000
 20
29.196152
 30
0.0
 10
-47.750000
 20
30.000000
 30
0.0
  0
LINE
  5
136
100
AcDbEntity
  8
0
 62
7
100
AcDbLine
 10
-47.750000
 20
30.000000
 30
0.0
 11
-47.750000
 21
30.000000
 31
0.0
  0
SPLINE
  5
137
100
AcDbEntity
  8
0
 62
7
100
AcDbSpline
 70
8
 71
3
 72
8
 73
4
 74
0
 40
0
 40
0
 40
0
 40
0
 40
1
 40
1
 40
1
 40
1
 10
42.250000
 20
30.000000
 30
0.0
 10
42.250285
 20
30.804037
 30
0.0
 10
41.821499
 20
31.547120
 30
0.0
 10
41.125230
 20
31.949221
 30
0.0
  0
SPLINE
  5
138
100
AcDbEntity
  8
0
 62
7
100
AcDbSpline
 70
8
 71
3
 72
8
 73
4
 74
0
 40
0
 40
0
 40
0
 40
0
 40
1
 40
1
 40
1
 40
1
 10
41.125230
 20
31.949221
 30
0.0
 10
40.428961
 20
32.351322
 30
0.0
 10
39.571039
 20
32.351322
 30
0.0
 10
38.874770
 20
31.949221
 30
0.0
  0
SPLINE
  5
139
100
AcDbEntity
  8
0
 62
7
100
AcDbSpline
 70
8
 71
3
 72
8
 73
4
 74
0
 40
0
 40
0
 40
0
 40
0
 40
1
 40
1
 40
1
 40
1
 10
38.874770
 20
31.949221
 30
0.0
 10
38.178501
 20
31.547120
 30
0.0
 10
37.749715
 20
30.804037
 30
0.0
 10
37.750000
 20
30.000000
 30
0.0
  0
SPLINE
  5
13a
100
AcDbEntity
  8
0
 62
7
100
AcDbSpline
 70
8
 71
3
 72
8
 73
4
 74
0
 40
0
 40
0
 40
0
 40
0
 40
1
 40
1
 40
1
 40
1
 10
37.750000
 20
30.000000
 30
0.0
 10
37.749715
 20
29.195963
 30
0.0
 10
38.178501
 20
28.452880
 30
0.0
 10
38.874770
 20
28.050779
 30
0.0
  0
SPLINE
  5
13b
100
AcDbEntity
  8
0
 62
7
100
AcDbSpline
 70
8
 71
3
 72
8
 73
4
 74
0
 40
0
 40
0
 40
0
 40
0
 40
1
 40
1
 40
1
 40
1
 10
38.874770
 20
28.050779
 30
0.0
 10
39.571039
 20
27.648678
 30
0.0
 10
40.428961
 20
27.648678
 30
0.0
 10
41.125230
 20
28.050779
 30
0.0
  0
SPLINE
  5
13c
100
AcDbEntity
  8
0
 62
7
100
AcDbSpline
 70
8
 71
3
 72
8
 73
4
 74
0
 40
0
 40
0
 40
0
 40
0
 40
1
 40
1
 40
1
 40
1
 10
41.125230
 20
28.050779
 30
0.0
 10
41.821499
 20
28.452880
 30
0.0
 10
42.250285
 20
29.195963
 30
0.0
 10
42.250000
 20
30.000000
 30
0.0
  0
LINE
  5
13d
100
AcDbEntity
  8
0
 62
7
100
AcDbLine
 10
42.250000
 20
30.000000
 30
0.0
 11
42.250000
 21
30.000000
 31
0.0
  0
SPLINE
  5
13e
100
AcDbEntity
  8
0
 62
7
100
AcDbSpline
 70
8
 71
3
 72
8
 73
4
 74
0
 40
0
 40
0
 40
0
 40
0
 40
1
 40
1
 40
1
 40
1
 10
42.250000
 20
-30.000000
 30
0.0
 10
42.250285
 20
-29.195963
 30
0.0
 10
41.821499
 20
-28.452880
 30
0.0
 10
41.125230
 20
-28.050779
 30
0.0
  0
SPLINE
  5
13f
100
AcDbEntity
  8
0
 62
7
100
AcDbSpline
 70
8
 71
3
 72
8
 73
4
 74
0
 40
0
 40
0
 40
0
 40
0
 40
1
 40
1
 40
1
 40
1
 10
41.125230
 20
-28.050779
 30
0.0
 10
40.428961
 20
-27.648678
 30
0.0
 10
39.571039
 20
-27.648678
 30
0.0
 10
38.874770
 20
-28.050779
 30
0.0
  0
SPLINE
  5
140
100
AcDbEntity
  8
0
 62
7
100
AcDbSpline
 70
8
 71
3
 72
8
 73
4
 74
0
 40
0
 40
0
 40
0
 40
0
 40
1
 40
1
 40
1
 40
1
 10
38.874770
 20
-28.050779
 30
0.0
 10
38.178501
 20
-28.452880
 30
0.0
 10
37.749715
 20
-29.195963
 30
0.0
 10
37.750000
 20
-30.000000
 30
0.0
  0
SPLINE
  5
141
100
AcDbEntity
  8
0
 62
7
100
AcDbSpline
 70
8
 71
3
 72
8
 73
4
 74
0
 40
0
 40
0
 40
0
 40
0
 40
1
 40
1
 40
1
 40
1
 10
37.750000
 20
-30.000000
 30
0.0
 10
37.749715
 20
-30.804037
 30
0.0
 10
38.178501
 20
-31.547120
 30
0.0
 10
38.874770
 20
-31.949221
 30
0.0
  0
SPLINE
  5
142
100
AcDbEntity
  8
0
 62
7
100
AcDbSpline
 70
8
 71
3
 72
8
 73
4
 74
0
 40
0
 40
0
 40
0
 40
0
 40
1
 40
1
 40
1
 40
1
 10
38.874770
 20
-31.949221
 30
0.0
 10
39.571039
 20
-32.351322
 30
0.0
 10
40.428961
 20
-32.351322
 30
0.0
 10
41.125230
 20
-31.949221
 30
0.0
  0
SPLINE
  5
143
100
AcDbEntity
  8
0
 62
7
100
AcDbSpline
 70
8
 71
3
 72
8
 73
4
 74
0
 40
0
 40
0
 40
0
 40
0
 40
1
 40
1
 40
1
 40
1
 10
41.125230
 20
-31.949221
 30
0.0
 10
41.821499
 20
-31.547120
 30
0.0
 10
42.250285
 20
-30.804037
 30
0.0
 10
42.250000
 20
-30.000000
 30
0.0
  0
LINE
  5
144
100
AcDbEntity
  8
0
 62
7
100
AcDbLine
 10
42.250000
 20
-30.000000
 30
0.0
 11
42.250000
 21
-30.000000
 31
0.0
  0
SPLINE
  5
145
100
AcDbEntity
  8
0
 62
7
100
AcDbSpline
 70
8
 71
3
 72
8
 73
4
 74
0
 40
0
 40
0
 40
0
 40
0
 40
1
 40
1
 40
1
 40
1
 10
-47.750000
 20
-30.000000
 30
0.0
 10
-47.750000
 20
-29.196152
 30
0.0
 10
-48.178847
 20
-28.453367
 30
0.0
 10
-48.875000
 20
-28.051443
 30
0.0
  0
SPLINE
  5
146
100
AcDbEntity
  8
0
 62
7
100
AcDbSpline
 70
8
 71
3
 72
8
 73
4
 74
0
 40
0
 40
0
 40
0
 40
0
 40
1
 40
1
 40
1
 40
1
 10
-48.875000
 20
-28.051443
 30
0.0
 10
-49.571152
 20
-27.649519
 30
0.0
 10
-50.428847
 20
-27.649519
 30
0.0
 10
-51.125000
 20
-28.051443
 30
0.0
  0
SPLINE
  5
147
100
AcDbEntity
  8
0
 62
7
100
AcDbSpline
 70
8
 71
3
 72
8
 73
4
 74
0
 40
0
 40
0
 40
0
 40
0
 40
1
 40
1
 40
1
 40
1
 10
-51.125000
 20
-28.051443
 30
0.0
 10
-51.821152
 20
-28.453367
 30
0.0
 10
-52.250000
 20
-29.196152
 30
0.0
 10
-52.250000
 20
-30.000000
 30
0.0
  0
SPLINE
  5
148
100
AcDbEntity
  8
0
 62
7
100
AcDbSpline
 70
8
 71
3
 72
8
 73
4
 74
0
 40
0
 40
0
 40
0
 40
0
 40
1
 40
1
 40
1
 40
1
 10
-52.250000
 20
-30.000000
 30
0.0
 10
-52.250000
 20
-30.803847
 30
0.0
 10
-51.821152
 20
-31.546633
 30
0.0
 10
-51.125000
 20
-31.948557
 30
0.0
  0
SPLINE
  5
149
100
AcDbEntity
  8
0
 62
7
100
AcDbSpline
 70
8
 71
3
 72
8
 73
4
 74
0
 40
0
 40
0
 40
0
 40
0
 40
1
 40
1
 40
1
 40
1
 10
-51.125000
 20
-31.948557
 30
0.0
 10
-50.428847
 20
-32.350481
 30
0.0
 10
-49.571152
 20
-32.350481
 30
0.0
 10
-48.875000
 20
-31.948557
 30
0.0
  0
SPLINE
  5
14a
100
AcDbEntity
  8
0
 62
7
100
AcDbSpline
 70
8
 71
3
 72
8
 73
4
 74
0
 40
0
 40
0
 40
0
 40
0
 40
1
 40
1
 40
1
 40
1
 10
-48.875000
 20
-31.948557
 30
0.0
 10
-48.178847
 20
-31.546633
 30
0.0
 10
-47.750000
 20
-30.803847
 30
0.0
 10
-47.750000
 20
-30.000000
 30
0.0
  0
LINE
  5
14b
100
AcDbEntity
  8
0
 62
7
100
AcDbLine
 10
-47.750000
 20
-30.000000
 30
0.0
 11
-47.750000
 21
-30.000000
 31
0.0
  0
SPLINE
  5
14c
100
AcDbEntity
  8
0
 62
7
100
AcDbSpline
 70
8
 71
3
 72
8
 73
4
 74
0
 40
0
 40
0
 40
0
 40
0
 40
1
 40
1
 40
1
 40
1
 10
45.000000
 20
32.000000
 30
0.0
 10
45.000000
 20
32.795649
 30
0.0
 10
44.683930
 20
33.558711
 30
0.0
 10
44.121320
 20
34.121320
 30
0.0
  0
SPLINE
  5
14d
100
AcDbEntity
  8
0
 62
7
100
AcDbSpline
 70
8
 71
3
 72
8
 73
4
 74
0
 40
0
 40
0
 40
0
 40
0
 40
1
 40
1
 40
1
 40
1
 10
44.121320
 20
34.121320
 30
0.0
 10
43.558711
 20
34.683929
 30
0.0
 10
42.795650
 20
35.000000
 30
0.0
 10
42.000000
 20
35.000000
 30
0.0
  0
LINE
  5
14e
100
AcDbEntity
  8
0
 62
7
100
AcDbLine
 10
45.000000
 20
32.000000
 30
0.0
 11
45.000000
 21
-32.000000
 31
0.0
  0
SPLINE
  5
14f
100
AcDbEntity
  8
0
 62
7
100
AcDbSpline
 70
8
 71
3
 72
8
 73
4
 74
0
 40
0
 40
0
 40
0
 40
0
 40
1
 40
1
 40
1
 40
1
 10
42.000000
 20
-35.000000
 30
0.0
 10
42.795650
 20
-35.000000
 30
0.0
 10
43.558711
 20
-34.683930
 30
0.0
 10
44.121320
 20
-34.121320
 30
0.0
  0
SPLINE
  5
150
100
AcDbEntity
  8
0
 62
7
100
AcDbSpline
 70
8
 71
3
 72
8
 73
4
 74
0
 40
0
 40
0
 40
0
 40
0
 40
1
 40
1
 40
1
 40
1
 10
44.121320
 20
-34.121320
 30
0.0
 10
44.683930
 20
-33.558711
 30
0.0
 10
45.000000
 20
-32.795649
 30
0.0
 10
45.000000
 20
-32.000000
 30
0.0
  0
LINE
  5
151
100
AcDbEntity
  8
0
 62
7
100
AcDbLine
 10
42.000000
 20
-35.000000
 30
0.0
 11
-52.000000
 21
-35.000000
 31
0.0
  0
SPLINE
  5
152
100
AcDbEntity
  8
0
 62
7
100
AcDbSpline
 70
8
 71
3
 72
8
 73
4
 74
0
 40
0
 40
0
 40
0
 40
0
 40
1
 40
1
 40
1
 40
1
 10
-55.000000
 20
-32.000000
 30
0.0
 10
-55.000000
 20
-32.795649
 30
0.0
 10
-54.683930
 20
-33.558711
 30
0.0
 10
-54.121321
 20
-34.121320
 30
0.0
  0
SPLINE
  5
153
100
AcDbEntity
  8
0
 62
7
100
AcDbSpline
 70
8
 71
3
 72
8
 73
4
 74
0
 40
0
 40
0
 40
0
 40
0
 40
1
 40
1
 40
1
 40
1
 10
-54.121321
 20
-34.121320
 30
0.0
 10
-53.558711
 20
-34.683930
 30
0.0
 10
-52.795650
 20
-35.000000
 30
0.0
 10
-52.000000
 20
-35.000000
 30
0.0
  0
LINE
  5
154
100
AcDbEntity
  8
0
 62
7
100
AcDbLine
 10
-55.000000
 20
-32.000000
 30
0.0
 11
-55.000000
 21
32.000000
 31
0.0
  0
LINE
  5
155
100
AcDbEntity
  8
0
 62
7
100
AcDbLine
 10
-52.000000
 20
35.000000
 30
0.0
 11
42.000000
 21
35.000000
 31
0.0
  0
SPLINE
  5
156
100
AcDbEntity
  8
0
 62
7
100
AcDbSpline
 70
8
 71
3
 72
8
 73
4
 74
0
 40
0
 40
0
 40
0
 40
0
 40
1
 40
1
 40
1
 40
1
 10
-52.000000
 20
35.000000
 30
0.0
 10
-52.795650
 20
35.000000
 30
0.0
 10
-53.558711
 20
34.683929
 30
0.0
 10
-54.121320
 20
34.121320
 30
0.0
  0
SPLINE
  5
157
100
AcDbEntity
  8
0
 62
7
100
AcDbSpline
 70
8
 71
3
 72
8
 73
4
 74
0
 40
0
 40
0
 40
0
 40
0
 40
1
 40
1
 40
1
 40
1
 10
-54.121320
 20
34.121320
 30
0.0
 10
-54.683930
 20
33.558711
 30
0.0
 10
-55.000000
 20
32.795649
 30
0.0
 10
-55.000000
 20
32.000000
 30
0.0
  0
SPLINE
  5
158
100
AcDbEntity
  8
0
 62
7
100
AcDbSpline
 70
8
 71
3
 72
8
 73
4
 74
0
 40
0
 40
0
 40
0
 40
0
 40
1
 40
1
 40
1
 40
1
 10
19.980451
 20
21.009817
 30
0.0
 10
19.720717
 20
21.002073
 30
0.0
 10
19.474194
 20
20.893540
 30
0.0
 10
19.293086
 20
20.707202
 30
0.0
  0
LINE
  5
159
100
AcDbEntity
  8
0
 62
7
100
AcDbLine
 10
19.293086
 20
20.707202
 30
0.0
 11
18.884084
 21
20.298200
 31
0.0
  0
SPLINE
  5
15a
100
AcDbEntity
  8
0
 62
7
100
AcDbSpline
 70
8
 71
3
 72
8
 73
4
 74
0
 40
0
 40
0
 40
0
 40
0
 40
1
 40
1
 40
1
 40
1
 10
18.884084
 20
20.298200
 30
0.0
 10
18.624081
 20
20.047144
 30
0.0
 10
18.519764
 20
19.675338
 30
0.0
 10
18.611224
 20
19.325673
 30
0.0
  0
SPLINE
  5
15b
100
AcDbEntity
  8
0
 62
7
100
AcDbSpline
 70
8
 71
3
 72
8
 73
4
 74
0
 40
0
 40
0
 40
0
 40
0
 40
1
 40
1
 40
1
 40
1
 10
18.611224
 20
19.325673
 30
0.0
 10
18.702685
 20
18.976009
 30
0.0
 10
18.975690
 20
18.702897
 30
0.0
 10
19.325319
 20
18.611300
 30
0.0
  0
SPLINE
  5
15c
100
AcDbEntity
  8
0
 62
7
100
AcDbSpline
 70
8
 71
3
 72
8
 73
4
 74
0
 40
0
 40
0
 40
0
 40
0
 40
1
 40
1
 40
1
 40
1
 10
19.325319
 20
18.611300
 30
0.0
 10
19.674948
 20
18.519704
 30
0.0
 10
20.046795
 20
18.623876
 30
0.0
 10
20.297951
 20
18.883781
 30
0.0
  0
SPLINE
  5
15d
100
AcDbEntity
  8
0
 62
7
100
AcDbSpline
 70
8
 71
3
 72
8
 73
4
 74
0
 40
0
 40
0
 40
0
 40
0
 40
1
 40
1
 40
1
 40
1
 10
20.297951
 20
18.883781
 30
0.0
 10
20.297951
 20
18.883781
 30
0.0
 10
20.706953
 20
19.292783
 30
0.0
 10
20.706953
 20
19.292783
 30
0.0
  0
SPLINE
  5
15e
100
AcDbEntity
  8
0
 62
7
100
AcDbSpline
 70
8
 71
3
 72
8
 73
4
 74
0
 40
0
 40
0
 40
0
 40
0
 40
1
 40
1
 40
1
 40
1
 10
20.706953
 20
19.292783
 30
0.0
 10
21.002884
 20
19.580240
 30
0.0
 10
21.091931
 20
20.019916
 30
0.0
 10
20.931169
 20
20.399866
 30
0.0
  0
SPLINE
  5
15f
100
AcDbEntity
  8
0
 62
7
100
AcDbSpline
 70
8
 71
3
 72
8
 73
4
 74
0
 40
0
 40
0
 40
0
 40
0
 40
1
 40
1
 40
1
 40
1
 10
20.931169
 20
20.399866
 30
0.0
 10
20.770407
 20
20.779816
 30
0.0
 10
20.392831
 20
21.022057
 30
0.0
 10
19.980451
 20
21.009817
 30
0.0
  0
LINE
  5
160
100
AcDbEntity
  8
0
 62
7
100
AcDbLine
 10
19.980451
 20
21.009817
 30
0.0
 11
19.980451
 21
21.009817
 31
0.0
  0
SPLINE
  5
161
100
AcDbEntity
  8
0
 62
7
100
AcDbSpline
 70
8
 71
3
 72
8
 73
4
 74
0
 40
0
 40
0
 40
0
 40
0
 40
1
 40
1
 40
1
 40
1
 10
5.000074
 20
1.000140
 30
0.0
 10
4.642748
 20
1.000140
 30
0.0
 10
4.312566
 20
0.809510
 30
0.0
 10
4.133904
 20
0.500057
 30
0.0
  0
SPLINE
  5
162
100
AcDbEntity
  8
0
 62
7
100
AcDbSpline
 70
8
 71
3
 72
8
 73
4
 74
0
 40
0
 40
0
 40
0
 40
0
 40
1
 40
1
 40
1
 40
1
 10
4.133904
 20
0.500057
 30
0.0
 10
3.955241
 20
0.190604
 30
0.0
 10
3.955241
 20
-0.190658
 30
0.0
 10
4.133904
 20
-0.500111
 30
0.0
  0
SPLINE
  5
163
100
AcDbEntity
  8
0
 62
7
100
AcDbSpline
 70
8
 71
3
 72
8
 73
4
 74
0
 40
0
 40
0
 40
0
 40
0
 40
1
 40
1
 40
1
 40
1
 10
4.133904
 20
-0.500111
 30
0.0
 10
4.312566
 20
-0.809563
 30
0.0
 10
4.642748
 20
-1.000194
 30
0.0
 10
5.000074
 20
-1.000194
 30
0.0
  0
SPLINE
  5
164
100
AcDbEntity
  8
0
 62
7
100
AcDbSpline
 70
8
 71
3
 72
8
 73
4
 74
0
 40
0
 40
0
 40
0
 40
0
 40
1
 40
1
 40
1
 40
1
 10
5.000074
 20
-1.000194
 30
0.0
 10
5.000074
 20
-1.000194
 30
0.0
 10
29.999892
 20
-1.000194
 30
0.0
 10
29.999892
 20
-1.000194
 30
0.0
  0
SPLINE
  5
165
100
AcDbEntity
  8
0
 62
7
100
AcDbSpline
 70
8
 71
3
 72
8
 73
4
 74
0
 40
0
 40
0
 40
0
 40
0
 40
1
 40
1
 40
1
 40
1
 10
29.999892
 20
-1.000194
 30
0.0
 10
30.357217
 20
-1.000194
 30
0.0
 10
30.687400
 20
-0.809563
 30
0.0
 10
30.866062
 20
-0.500111
 30
0.0
  0
SPLINE
  5
166
100
AcDbEntity
  8
0
 62
7
100
AcDbSpline
 70
8
 71
3
 72
8
 73
4
 74
0
 40
0
 40
0
 40
0
 40
0
 40
1
 40
1
 40
1
 40
1
 10
30.866062
 20
-0.500111
 30
0.0
 10
31.044725
 20
-0.190658
 30
0.0
 10
31.044725
 20
0.190604
 30
0.0
 10
30.866062
 20
0.500057
 30
0.0
  0
SPLINE
  5
167
100
AcDbEntity
  8
0
 62
7
100
AcDbSpline
 70
8
 71
3
 72
8
 73
4
 74
0
 40
0
 40
0
 40
0
 40
0
 40
1
 40
1
 40
1
 40
1
 10
30.866062
 20
0.500057
 30
0.0
 10
30.687400
 20
0.809510
 30
0.0
 10
30.357217
 20
1.000140
 30
0.0
 10
29.999892
 20
1.000140
 30
0.0
  0
LINE
  5
168
100
AcDbEntity
  8
0
 62
7
100
AcDbLine
 10
29.999892
 20
1.000140
 30
0.0
 11
5.000074
 21
1.000140
 31
0.0
  0
LINE
  5
169
100
AcDbEntity
  8
0
 62
7
100
AcDbLine
 10
5.000074
 20
1.000140
 30
0.0
 11
5.000074
 21
1.000140
 31
0.0
  0
SPLINE
  5
16a
100
AcDbEntity
  8
0
 62
7
100
AcDbSpline
 70
8
 71
3
 72
8
 73
4
 74
0
 40
0
 40
0
 40
0
 40
0
 40
1
 40
1
 40
1
 40
1
 10
3.525022
 20
-2.525408
 30
0.0
 10
3.118086
 20
-2.525628
 30
0.0
 10
2.751860
 20
-2.772394
 30
0.0
 10
2.598852
 20
-3.149469
 30
0.0
  0
SPLINE
  5
16b
100
AcDbEntity
  8
0
 62
7
100
AcDbSpline
 70
8
 71
3
 72
8
 73
4
 74
0
 40
0
 40
0
 40
0
 40
0
 40
1
 40
1
 40
1
 40
1
 10
2.598852
 20
-3.149469
 30
0.0
 10
2.445843
 20
-3.526543
 30
0.0
 10
2.536566
 20
-3.958729
 30
0.0
 10
2.828285
 20
-4.242448
 30
0.0
  0
SPLINE
  5
16c
100
AcDbEntity
  8
0
 62
7
100
AcDbSpline
 70
8
 71
3
 72
8
 73
4
 74
0
 40
0
 40
0
 40
0
 40
0
 40
1
 40
1
 40
1
 40
1
 10
2.828285
 20
-4.242448
 30
0.0
 10
2.828285
 20
-4.242448
 30
0.0
 10
15.701918
 20
-17.116099
 30
0.0
 10
15.701918
 20
-17.116099
 30
0.0
  0
SPLINE
  5
16d
100
AcDbEntity
  8
0
 62
7
100
AcDbSpline
 70
8
 71
3
 72
8
 73
4
 74
0
 40
0
 40
0
 40
0
 40
0
 40
1
 40
1
 40
1
 40
1
 10
15.701918
 20
-17.116099
 30
0.0
 10
16.092506
 20
-17.506680
 30
0.0
 10
16.725767
 20
-17.506675
 30
0.0
 10
17.116348
 20
-17.116088
 30
0.0
  0
SPLINE
  5
16e
100
AcDbEntity
  8
0
 62
7
100
AcDbSpline
 70
8
 71
3
 72
8
 73
4
 74
0
 40
0
 40
0
 40
0
 40
0
 40
1
 40
1
 40
1
 40
1
 10
17.116348
 20
-17.116088
 30
0.0
 10
17.506929
 20
-16.725500
 30
0.0
 10
17.506924
 20
-16.092239
 30
0.0
 10
17.116337
 20
-15.701658
 30
0.0
  0
SPLINE
  5
16f
100
AcDbEntity
  8
0
 62
7
100
AcDbSpline
 70
8
 71
3
 72
8
 73
4
 74
0
 40
0
 40
0
 40
0
 40
0
 40
1
 40
1
 40
1
 40
1
 10
17.116337
 20
-15.701658
 30
0.0
 10
17.116337
 20
-15.701658
 30
0.0
 10
4.242704
 20
-2.828599
 30
0.0
 10
4.242704
 20
-2.828599
 30
0.0
  0
SPLINE
  5
170
100
AcDbEntity
  8
0
 62
7
100
AcDbSpline
 70
8
 71
3
 72
8
 73
4
 74
0
 40
0
 40
0
 40
0
 40
0
 40
1
 40
1
 40
1
 40
1
 10
4.242704
 20
-2.828599
 30
0.0
 10
4.054295
 20
-2.634678
 30
0.0
 10
3.795398
 20
-2.525304
 30
0.0
 10
3.525022
 20
-2.525408
 30
0.0
  0
LINE
  5
171
100
AcDbEntity
  8
0
 62
7
100
AcDbLine
 10
3.525022
 20
-2.525408
 30
0.0
 11
3.525022
 21
-2.525408
 31
0.0
  0
SPLINE
  5
172
100
AcDbEntity
  8
0
 62
7
100
AcDbSpline
 70
8
 71
3
 72
8
 73
4
 74
0
 40
0
 40
0
 40
0
 40
0
 40
1
 40
1
 40
1
 40
1
 10
19.580269
 20
-18.580663
 30
0.0
 10
19.173180
 20
-18.580872
 30
0.0
 10
18.806842
 20
-18.827810
 30
0.0
 10
18.653923
 20
-19.205086
 30
0.0
  0
SPLINE
  5
173
100
AcDbEntity
  8
0
 62
7
100
AcDbSpline
 70
8
 71
3
 72
8
 73
4
 74
0
 40
0
 40
0
 40
0
 40
0
 40
1
 40
1
 40
1
 40
1
 10
18.653923
 20
-19.205086
 30
0.0
 10
18.501004
 20
-19.582362
 30
0.0
 10
18.592025
 20
-20.014678
 30
0.0
 10
18.884084
 20
-20.298268
 30
0.0
  0
SPLINE
  5
174
100
AcDbEntity
  8
0
 62
7
100
AcDbSpline
 70
8
 71
3
 72
8
 73
4
 74
0
 40
0
 40
0
 40
0
 40
0
 40
1
 40
1
 40
1
 40
1
 10
18.884084
 20
-20.298268
 30
0.0
 10
18.884084
 20
-20.298268
 30
0.0
 10
19.293086
 20
-20.707264
 30
0.0
 10
19.293086
 20
-20.707264
 30
0.0
  0
SPLINE
  5
175
100
AcDbEntity
  8
0
 62
7
100
AcDbSpline
 70
8
 71
3
 72
8
 73
4
 74
0
 40
0
 40
0
 40
0
 40
0
 40
1
 40
1
 40
1
 40
1
 10
19.293086
 20
-20.707264
 30
0.0
 10
19.544231
 20
-20.967218
 30
0.0
 10
19.916102
 20
-21.071428
 30
0.0
 10
20.265761
 20
-20.979839
 30
0.0
  0
SPLINE
  5
176
100
AcDbEntity
  8
0
 62
7
100
AcDbSpline
 70
8
 71
3
 72
8
 73
4
 74
0
 40
0
 40
0
 40
0
 40
0
 40
1
 40
1
 40
1
 40
1
 10
20.265761
 20
-20.979839
 30
0.0
 10
20.615420
 20
-20.888249
 30
0.0
 10
20.888449
 20
-20.615115
 30
0.0
 10
20.979903
 20
-20.265420
 30
0.0
  0
SPLINE
  5
177
100
AcDbEntity
  8
0
 62
7
100
AcDbSpline
 70
8
 71
3
 72
8
 73
4
 74
0
 40
0
 40
0
 40
0
 40
0
 40
1
 40
1
 40
1
 40
1
 10
20.979903
 20
-20.265420
 30
0.0
 10
21.071358
 20
-19.915726
 30
0.0
 10
20.967004
 20
-19.543896
 30
0.0
 10
20.706953
 20
-19.292851
 30
0.0
  0
LINE
  5
178
100
AcDbEntity
  8
0
 62
7
100
AcDbLine
 10
20.706953
 20
-19.292851
 30
0.0
 11
20.297951
 21
-18.883826
 31
0.0
  0
SPLINE
  5
179
100
AcDbEntity
  8
0
 62
7
100
AcDbSpline
 70
8
 71
3
 72
8
 73
4
 74
0
 40
0
 40
0
 40
0
 40
0
 40
1
 40
1
 40
1
 40
1
 10
20.297951
 20
-18.883826
 30
0.0
 10
20.109538
 20
-18.689915
 30
0.0
 10
19.850641
 20
-18.580552
 30
0.0
 10
19.580269
 20
-18.580663
 30
0.0
  0
LINE
  5
17a
100
AcDbEntity
  8
0
 62
7
100
AcDbLine
 10
19.580269
 20
-18.580663
 30
0.0
 11
19.580269
 21
-18.580663
 31
0.0
  0
SPLINE
  5
17b
100
AcDbEntity
  8
0
 62
7
100
AcDbSpline
 70
8
 71
3
 72
8
 73
4
 74
0
 40
0
 40
0
 40
0
 40
0
 40
1
 40
1
 40
1
 40
1
 10
5.000000
 20
-0.000000
 30
0.0
 10
5.000000
 20
1.786328
 30
0.0
 10
4.047005
 20
3.436963
 30
0.0
 10
2.500000
 20
4.330127
 30
0.0
  0
SPLINE
  5
17c
100
AcDbEntity
  8
0
 62
7
100
AcDbSpline
 70
8
 71
3
 72
8
 73
4
 74
0
 40
0
 40
0
 40
0
 40
0
 40
1
 40
1
 40
1
 40
1
 10
2.500000
 20
4.330127
 30
0.0
 10
0.952995
 20
5.223291
 30
0.0
 10
-0.952995
 20
5.223291
 30
0.0
 10
-2.500000
 20
4.330127
 30
0.0
  0
SPLINE
  5
17d
100
AcDbEntity
  8
0
 62
7
100
AcDbSpline
 70
8
 71
3
 72
8
 73
4
 74
0
 40
0
 40
0
 40
0
 40
0
 40
1
 40
1
 40
1
 40
1
 10
-2.500000
 20
4.330127
 30
0.0
 10
-4.047005
 20
3.436963
 30
0.0
 10
-5.000000
 20
1.786328
 30
0.0
 10
-5.000000
 20
-0.000000
 30
0.0
  0
SPLINE
  5
17e
100
AcDbEntity
  8
0
 62
7
100
AcDbSpline
 70
8
 71
3
 72
8
 73
4
 74
0
 40
0
 40
0
 40
0
 40
0
 40
1
 40
1
 40
1
 40
1
 10
-5.000000
 20
-0.000000
 30
0.0
 10
-5.000000
 20
-1.786328
 30
0.0
 10
-4.047005
 20
-3.436963
 30
0.0
 10
-2.500000
 20
-4.330127
 30
0.0
  0
SPLINE
  5
17f
100
AcDbEntity
  8
0
 62
7
100
AcDbSpline
 70
8
 71
3
 72
8
 73
4
 74
0
 40
0
 40
0
 40
0
 40
0
 40
1
 40
1
 40
1
 40
1
 10
-2.500000
 20
-4.330127
 30
0.0
 10
-0.952995
 20
-5.223291
 30
0.0
 10
0.952995
 20
-5.223291
 30
0.0
 10
2.500000
 20
-4.330127
 30
0.0
  0
SPLINE
  5
180
100
AcDbEntity
  8
0
 62
7
100
AcDbSpline
 70
8
 71
3
 72
8
 73
4
 74
0
 40
0
 40
0
 40
0
 40
0
 40
1
 40
1
 40
1
 40
1
 10
2.500000
 20
-4.330127
 30
0.0
 10
4.047005
 20
-3.436963
 30
0.0
 10
5.000000
 20
-1.786328
 30
0.0
 10
5.000000
 20
-0.000000
 30
0.0
  0
LINE
  5
181
100
AcDbEntity
  8
0
 62
7
100
AcDbLine
 10
5.000000
 20
-0.000000
 30
0.0
 11
5.000000
 21
-0.000000
 31
0.0
  0
SPLINE
  5
182
100
AcDbEntity
  8
0
 62
7
100
AcDbSpline
 70
8
 71
3
 72
8
 73
4
 74
0
 40
0
 40
0
 40
0
 40
0
 40
1
 40
1
 40
1
 40
1
 10
20.250000
 20
-18.000000
 30
0.0
 10
20.250000
 20
-17.196152
 30
0.0
 10
19.821153
 20
-16.453367
 30
0.0
 10
19.125000
 20
-16.051443
 30
0.0
  0
SPLINE
  5
183
100
AcDbEntity
  8
0
 62
7
100
AcDbSpline
 70
8
 71
3
 72
8
 73
4
 74
0
 40
0
 40
0
 40
0
 40
0
 40
1
 40
1
 40
1
 40
1
 10
19.125000
 20
-16.051443
 30
0.0
 10
18.428848
 20
-15.649519
 30
0.0
 10
17.571153
 20
-15.649519
 30
0.0
 10
16.875000
 20
-16.051443
 30
0.0
  0
SPLINE
  5
184
100
AcDbEntity
  8
0
 62
7
100
AcDbSpline
 70
8
 71
3
 72
8
 73
4
 74
0
 40
0
 40
0
 40
0
 40
0
 40
1
 40
1
 40
1
 40
1
 10
16.875000
 20
-16.051443
 30
0.0
 10
16.178848
 20
-16.453367
 30
0.0
 10
15.750000
 20
-17.196152
 30
0.0
 10
15.750000
 20
-18.000000
 30
0.0
  0
SPLINE
  5
185
100
AcDbEntity
  8
0
 62
7
100
AcDbSpline
 70
8
 71
3
 72
8
 73
4
 74
0
 40
0
 40
0
 40
0
 40
0
 40
1
 40
1
 40
1
 40
1
 10
15.750000
 20
-18.000000
 30
0.0
 10
15.750000
 20
-18.803848
 30
0.0
 10
16.178848
 20
-19.546633
 30
0.0
 10
16.875000
 20
-19.948557
 30
0.0
  0
SPLINE
  5
186
100
AcDbEntity
  8
0
 62
7
100
AcDbSpline
 70
8
 71
3
 72
8
 73
4
 74
0
 40
0
 40
0
 40
0
 40
0
 40
1
 40
1
 40
1
 40
1
 10
16.875000
 20
-19.948557
 30
0.0
 10
17.571153
 20
-20.350481
 30
0.0
 10
18.428848
 20
-20.350481
 30
0.0
 10
19.125000
 20
-19.948557
 30
0.0
  0
SPLINE
  5
187
100
AcDbEntity
  8
0
 62
7
100
AcDbSpline
 70
8
 71
3
 72
8
 73
4
 74
0
 40
0
 40
0
 40
0
 40
0
 40
1
 40
1
 40
1
 40
1
 10
19.125000
 20
-19.948557
 30
0.0
 10
19.821153
 20
-19.546633
 30
0.0
 10
20.250000
 20
-18.803848
 30
0.0
 10
20.250000
 20
-18.000000
 30
0.0
  0
LINE
  5
188
100
AcDbEntity
  8
0
 62
7
100
AcDbLine
 10
20.250000
 20
-18.000000
 30
0.0
 11
20.250000
 21
-18.000000
 31
0.0
  0
SPLINE
  5
189
100
AcDbEntity
  8
0
 62
7
100
AcDbSpline
 70
8
 71
3
 72
8
 73
4
 74
0
 40
0
 40
0
 40
0
 40
0
 40
1
 40
1
 40
1
 40
1
 10
20.250000
 20
18.000000
 30
0.0
 10
20.250000
 20
18.803848
 30
0.0
 10
19.821153
 20
19.546633
 30
0.0
 10
19.125000
 20
19.948557
 30
0.0
  0
SPLINE
  5
18a
100
AcDbEntity
  8
0
 62
7
100
AcDbSpline
 70
8
 71
3
 72
8
 73
4
 74
0
 40
0
 40
0
 40
0
 40
0
 40
1
 40
1
 40
1
 40
1
 10
19.125000
 20
19.948557
 30
0.0
 10
18.428848
 20
20.350481
 30
0.0
 10
17.571153
 20
20.350481
 30
0.0
 10
16.875000
 20
19.948557
 30
0.0
  0
SPLINE
  5
18b
100
AcDbEntity
  8
0
 62
7
100
AcDbSpline
 70
8
 71
3
 72
8
 73
4
 74
0
 40
0
 40
0
 40
0
 40
0
 40
1
 40
1
 40
1
 40
1
 10
16.875000
 20
19.948557
 30
0.0
 10
16.178848
 20
19.546633
 30
0.0
 10
15.750000
 20
18.803848
 30
0.0
 10
15.750000
 20
18.000000
 30
0.0
  0
SPLINE
  5
18c
100
AcDbEntity
  8
0
 62
7
100
AcDbSpline
 70
8
 71
3
 72
8
 73
4
 74
0
 40
0
 40
0
 40
0
 40
0
 40
1
 40
1
 40
1
 40
1
 10
15.750000
 20
18.000000
 30
0.0
 10
15.750000
 20
17.196152
 30
0.0
 10
16.178848
 20
16.453367
 30
0.0
 10
16.875000
 20
16.051443
 30
0.0
  0
SPLINE
  5
18d
100
AcDbEntity
  8
0
 62
7
100
AcDbSpline
 70
8
 71
3
 72
8
 73
4
 74
0
 40
0
 40
0
 40
0
 40
0
 40
1
 40
1
 40
1
 40
1
 10
16.875000
 20
16.051443
 30
0.0
 10
17.571153
 20
15.649519
 30
0.0
 10
18.428848
 20
15.649519
 30
0.0
 10
19.125000
 20
16.051443
 30
0.0
  0
SPLINE
  5
18e
100
AcDbEntity
  8
0
 62
7
100
AcDbSpline
 70
8
 71
3
 72
8
 73
4
 74
0
 40
0
 40
0
 40
0
 40
0
 40
1
 40
1
 40
1
 40
1
 10
19.125000
 20
16.051443
 30
0.0
 10
19.821153
 20
16.453367
 30
0.0
 10
20.250000
 20
17.196152
 30
0.0
 10
20.250000
 20
18.000000
 30
0.0
  0
LINE
  5
18f
100
AcDbEntity
  8
0
 62
7
100
AcDbLine
 10
20.250000
 20
18.000000
 30
0.0
 11
20.250000
 21
18.000000
 31
0.0
  0
ENDSEC
  0
SECTION
  2
OBJECTS
  0
DICTIONARY
  5
C
330
0
100
AcDbDictionary
  3
ACAD_GROUP
350
D
  3
ACAD_MLINESTYLE
350
17
  0
DICTIONARY
  5
D
330
C
100
AcDbDictionary
  0
DICTIONARY
  5
1A
330
C
100
AcDbDictionary
  0
DICTIONARY
  5
17
330
C
100
AcDbDictionary
  3
STANDARD
350
18
  0
DICTIONARY
  5
19
330
C
100
AcDbDictionary
  0
ENDSEC
  0
EOF
