EESchema Schematic File Version 2
LIBS:freetronics_schematic
LIBS:power
LIBS:device
LIBS:transistors
LIBS:conn
LIBS:linear
LIBS:regul
LIBS:74xx
LIBS:cmos4000
LIBS:adc-dac
LIBS:memory
LIBS:xilinx
LIBS:microcontrollers
LIBS:dsp
LIBS:microchip
LIBS:analog_switches
LIBS:motorola
LIBS:texas
LIBS:intel
LIBS:audio
LIBS:interface
LIBS:digital-audio
LIBS:philips
LIBS:display
LIBS:cypress
LIBS:siliconi
LIBS:opto
LIBS:atmel
LIBS:contrib
LIBS:valves
LIBS:ksky mega shield-cache
EELAYER 25 0
EELAYER END
$Descr A4 11693 8268
encoding utf-8
Sheet 1 1
Title "ksky Arduino Mega shield"
Date ""
Rev ""
Comp ""
Comment1 ""
Comment2 ""
Comment3 ""
Comment4 ""
$EndDescr
$Comp
L ARDUINO_MEGA_SHIELD SHIELD1
U 1 1 5829A818
P 2950 4200
F 0 "SHIELD1" H 2500 7300 60  0000 C CNN
F 1 "ARDUINO_MEGA_SHIELD" H 2850 1500 60  0000 C CNN
F 2 "freetronics_footprints:ARDUINO_MEGA_SHIELD" H 2950 4000 50  0001 C CNN
F 3 "" H 2950 4200 60  0000 C CNN
	1    2950 4200
	1    0    0    -1  
$EndComp
$Comp
L CONN_02X05 P4
U 1 1 5829A9E2
P 7500 3200
F 0 "P4" H 7500 3500 50  0000 C CNN
F 1 "TOGGLES" H 7500 2900 50  0000 C CNN
F 2 "Pin_Headers:Pin_Header_Straight_2x05" H 7500 2000 50  0001 C CNN
F 3 "" H 7500 2000 50  0000 C CNN
	1    7500 3200
	1    0    0    -1  
$EndComp
$Comp
L CONN_02X08 P3
U 1 1 582AD2C3
P 7500 1900
F 0 "P3" H 7500 2350 50  0000 C CNN
F 1 "ACTION" V 7500 1900 50  0000 C CNN
F 2 "Pin_Headers:Pin_Header_Straight_2x08" H 7500 700 50  0001 C CNN
F 3 "" H 7500 700 50  0000 C CNN
	1    7500 1900
	1    0    0    -1  
$EndComp
$Comp
L CONN_02X08 P6
U 1 1 582AD326
P 9200 1900
F 0 "P6" H 9200 2350 50  0000 C CNN
F 1 "THROTTLE" V 9200 1900 50  0000 C CNN
F 2 "Pin_Headers:Pin_Header_Straight_2x08" H 9200 700 50  0001 C CNN
F 3 "" H 9200 700 50  0000 C CNN
	1    9200 1900
	1    0    0    -1  
$EndComp
$Comp
L CONN_02X08 P1
U 1 1 582AD397
P 5800 1900
F 0 "P1" H 5800 2350 50  0000 C CNN
F 1 "RIGHTSTICK" V 5800 1900 50  0000 C CNN
F 2 "Pin_Headers:Pin_Header_Straight_2x08" H 5800 700 50  0001 C CNN
F 3 "" H 5800 700 50  0000 C CNN
	1    5800 1900
	1    0    0    -1  
$EndComp
$Comp
L CONN_02X03 P2
U 1 1 582AD684
P 5800 3100
F 0 "P2" H 5800 3300 50  0000 C CNN
F 1 "LEFTSTICK" H 5800 2900 50  0000 C CNN
F 2 "Pin_Headers:Pin_Header_Straight_2x03" H 5800 1900 50  0001 C CNN
F 3 "" H 5800 1900 50  0000 C CNN
	1    5800 3100
	1    0    0    -1  
$EndComp
$Comp
L CONN_02X03 P7
U 1 1 582AD6D0
P 9200 3100
F 0 "P7" H 9200 3300 50  0000 C CNN
F 1 "STAGING" H 9200 2900 50  0000 C CNN
F 2 "Pin_Headers:Pin_Header_Straight_2x03" H 9200 1900 50  0001 C CNN
F 3 "" H 9200 1900 50  0000 C CNN
	1    9200 3100
	1    0    0    -1  
$EndComp
$Comp
L CONN_01X04 P8
U 1 1 582AD702
P 9200 3900
F 0 "P8" H 9200 4150 50  0000 C CNN
F 1 "MODE" V 9300 3900 50  0000 C CNN
F 2 "Socket_Strips:Socket_Strip_Straight_1x04" H 9200 3900 50  0001 C CNN
F 3 "" H 9200 3900 50  0000 C CNN
	1    9200 3900
	-1   0    0    1   
$EndComp
$Comp
L GND #PWR01
U 1 1 582AE14E
P 5300 1400
F 0 "#PWR01" H 5300 1150 50  0001 C CNN
F 1 "GND" H 5300 1250 50  0000 C CNN
F 2 "" H 5300 1400 50  0000 C CNN
F 3 "" H 5300 1400 50  0000 C CNN
	1    5300 1400
	1    0    0    1   
$EndComp
$Comp
L +5V #PWR02
U 1 1 582AE796
P 5300 3350
F 0 "#PWR02" H 5300 3200 50  0001 C CNN
F 1 "+5V" H 5300 3490 50  0000 C CNN
F 2 "" H 5300 3350 50  0000 C CNN
F 3 "" H 5300 3350 50  0000 C CNN
	1    5300 3350
	1    0    0    1   
$EndComp
$Comp
L GND #PWR03
U 1 1 582AE7C2
P 6300 3350
F 0 "#PWR03" H 6300 3100 50  0001 C CNN
F 1 "GND" H 6300 3200 50  0000 C CNN
F 2 "" H 6300 3350 50  0000 C CNN
F 3 "" H 6300 3350 50  0000 C CNN
	1    6300 3350
	1    0    0    -1  
$EndComp
$Comp
L +5V #PWR04
U 1 1 582AEFC4
P 6900 1500
F 0 "#PWR04" H 6900 1350 50  0001 C CNN
F 1 "+5V" H 6900 1640 50  0000 C CNN
F 2 "" H 6900 1500 50  0000 C CNN
F 3 "" H 6900 1500 50  0000 C CNN
	1    6900 1500
	1    0    0    -1  
$EndComp
$Comp
L GND #PWR05
U 1 1 582AEFF0
P 6900 2200
F 0 "#PWR05" H 6900 1950 50  0001 C CNN
F 1 "GND" H 6900 2050 50  0000 C CNN
F 2 "" H 6900 2200 50  0000 C CNN
F 3 "" H 6900 2200 50  0000 C CNN
	1    6900 2200
	1    0    0    -1  
$EndComp
$Comp
L +5V #PWR06
U 1 1 582AF273
P 9800 1400
F 0 "#PWR06" H 9800 1250 50  0001 C CNN
F 1 "+5V" H 9800 1540 50  0000 C CNN
F 2 "" H 9800 1400 50  0000 C CNN
F 3 "" H 9800 1400 50  0000 C CNN
	1    9800 1400
	1    0    0    -1  
$EndComp
$Comp
L GND #PWR07
U 1 1 582AF2D6
P 9800 1750
F 0 "#PWR07" H 9800 1500 50  0001 C CNN
F 1 "GND" H 9800 1600 50  0000 C CNN
F 2 "" H 9800 1750 50  0000 C CNN
F 3 "" H 9800 1750 50  0000 C CNN
	1    9800 1750
	1    0    0    1   
$EndComp
$Comp
L VIn #PWR08
U 1 1 582AF406
P 10000 2400
F 0 "#PWR08" H 10000 2360 30  0001 C CNN
F 1 "VIn" H 10000 2510 30  0000 C CNN
F 2 "" H 10000 2400 60  0000 C CNN
F 3 "" H 10000 2400 60  0000 C CNN
	1    10000 2400
	1    0    0    1   
$EndComp
$Comp
L +5V #PWR09
U 1 1 582AF73B
P 7000 2850
F 0 "#PWR09" H 7000 2700 50  0001 C CNN
F 1 "+5V" H 7000 2990 50  0000 C CNN
F 2 "" H 7000 2850 50  0000 C CNN
F 3 "" H 7000 2850 50  0000 C CNN
	1    7000 2850
	1    0    0    -1  
$EndComp
$Comp
L GND #PWR010
U 1 1 582AF848
P 9700 2850
F 0 "#PWR010" H 9700 2600 50  0001 C CNN
F 1 "GND" H 9700 2700 50  0000 C CNN
F 2 "" H 9700 2850 50  0000 C CNN
F 3 "" H 9700 2850 50  0000 C CNN
	1    9700 2850
	1    0    0    1   
$EndComp
$Comp
L +5V #PWR011
U 1 1 582AF91B
P 9700 3600
F 0 "#PWR011" H 9700 3450 50  0001 C CNN
F 1 "+5V" H 9700 3740 50  0000 C CNN
F 2 "" H 9700 3600 50  0000 C CNN
F 3 "" H 9700 3600 50  0000 C CNN
	1    9700 3600
	1    0    0    -1  
$EndComp
Text Label 6150 1650 0    60   ~ 0
SASINV
Text Label 6150 1750 0    60   ~ 0
ROTTRANS
Text Label 6150 1850 0    60   ~ 0
TRANSUP
Text Label 5450 1650 2    60   ~ 0
AXIS
Text Label 5450 1750 2    60   ~ 0
TRANSRIGHT
Text Label 5450 1850 2    60   ~ 0
TRANSLEFT
Text Label 5450 1950 2    60   ~ 0
TRANSDOWN
Text Label 7150 1550 2    60   ~ 0
AG1
Text Label 7850 1550 0    60   ~ 0
AG2
Text Label 7850 1650 0    60   ~ 0
AG3
Text Label 7850 1750 0    60   ~ 0
AG4
Text Label 7850 1850 0    60   ~ 0
AG5
Text Label 7850 1950 0    60   ~ 0
AG6
Text Label 7850 2050 0    60   ~ 0
AG7
Text Label 7850 2150 0    60   ~ 0
AG8
Text Label 7850 2250 0    60   ~ 0
AG9
Text Label 7150 2250 2    60   ~ 0
AG0
Text Label 8850 1550 2    60   ~ 0
THROTTLE
Text Label 8850 1650 2    60   ~ 0
MECO
Text Label 8850 1750 2    60   ~ 0
FTP
Text Label 9550 1950 0    60   ~ 0
THROTTLEEN
Text Label 9550 2050 0    60   ~ 0
THROTTLEDOWN
Text Label 9550 2150 0    60   ~ 0
THROTTLEUP
Text Label 5450 3000 2    60   ~ 0
SAS
Text Label 5450 3100 2    60   ~ 0
RCS
Text Label 6150 3000 0    60   ~ 0
TRANSFORE
Text Label 6150 3100 0    60   ~ 0
TRANSAFT
$Comp
L GND #PWR012
U 1 1 582B0536
P 8000 2850
F 0 "#PWR012" H 8000 2600 50  0001 C CNN
F 1 "GND" H 8000 2700 50  0000 C CNN
F 2 "" H 8000 2850 50  0000 C CNN
F 3 "" H 8000 2850 50  0000 C CNN
	1    8000 2850
	1    0    0    1   
$EndComp
Text Label 7850 3100 0    60   ~ 0
GEAR
Text Label 7850 3200 0    60   ~ 0
BRAKE
Text Label 7850 3300 0    60   ~ 0
BRAKEINV
Text Label 7850 3400 0    60   ~ 0
LIGHTS
Text Label 8850 3100 2    60   ~ 0
STAGE
Text Label 8850 3200 2    60   ~ 0
ABORT
Text Label 9550 3100 0    60   ~ 0
STAGELOCK
Text Label 9550 3850 0    60   ~ 0
ON
$Comp
L CONN_01X04 P5
U 1 1 582B0BE2
P 8150 3900
F 0 "P5" H 8150 4150 50  0000 C CNN
F 1 "I2C" V 8250 3900 50  0000 C CNN
F 2 "Socket_Strips:Socket_Strip_Straight_1x04" H 8150 3900 50  0001 C CNN
F 3 "" H 8150 3900 50  0000 C CNN
	1    8150 3900
	-1   0    0    1   
$EndComp
Text Label 8450 3850 0    60   ~ 0
SCL
Text Label 8450 3950 0    60   ~ 0
SDA
Text Label 3950 1650 0    60   ~ 0
SCL
Text Label 3950 1750 0    60   ~ 0
SDA
Text Label 3950 6400 0    60   ~ 0
STAGE
Text Label 3950 6300 0    60   ~ 0
STAGELOCK
Text Label 3950 6200 0    60   ~ 0
ABORT
Text Label 3950 6100 0    60   ~ 0
MECO
Text Label 3950 6000 0    60   ~ 0
FTP
Text Label 3950 5900 0    60   ~ 0
AG1
Text Label 3950 5800 0    60   ~ 0
AG2
Text Label 3950 5700 0    60   ~ 0
AG3
Wire Wire Line
	5300 1400 5300 1550
Wire Wire Line
	5300 1550 5550 1550
Wire Wire Line
	5550 1650 5300 1650
Wire Wire Line
	5550 1750 5300 1750
Wire Wire Line
	5550 1850 5300 1850
Wire Wire Line
	5550 1950 5300 1950
Wire Wire Line
	6050 1650 6300 1650
Wire Wire Line
	6050 1750 6300 1750
Wire Wire Line
	6050 1850 6300 1850
Wire Wire Line
	5550 3200 5300 3200
Wire Wire Line
	5300 3200 5300 3350
Wire Wire Line
	6050 3200 6300 3200
Wire Wire Line
	6300 3200 6300 3350
Wire Wire Line
	7250 1650 6900 1650
Wire Wire Line
	6900 1650 6900 1500
Wire Wire Line
	7250 1550 7000 1550
Wire Wire Line
	7750 1550 8000 1550
Wire Wire Line
	7750 1650 8000 1650
Wire Wire Line
	7750 1750 8000 1750
Wire Wire Line
	7750 1850 8000 1850
Wire Wire Line
	7750 1950 8000 1950
Wire Wire Line
	7750 2050 8000 2050
Wire Wire Line
	7750 2150 8000 2150
Wire Wire Line
	7750 2250 8000 2250
Wire Wire Line
	9450 1550 9800 1550
Wire Wire Line
	9800 1550 9800 1400
Wire Wire Line
	9450 1850 9800 1850
Wire Wire Line
	9800 1850 9800 1750
Wire Wire Line
	9450 2050 9700 2050
Wire Wire Line
	9450 2150 9700 2150
Wire Wire Line
	9450 2250 10000 2250
Wire Wire Line
	10000 2250 10000 2400
Wire Wire Line
	8950 1550 8700 1550
Wire Wire Line
	8950 1650 8700 1650
Wire Wire Line
	8950 1750 8700 1750
Wire Wire Line
	7250 3000 7000 3000
Wire Wire Line
	7000 3000 7000 2850
Wire Wire Line
	9450 3000 9700 3000
Wire Wire Line
	9700 3000 9700 2850
Wire Wire Line
	9400 3750 9700 3750
Wire Wire Line
	9700 3750 9700 3600
Wire Wire Line
	9400 4050 9700 4050
Wire Wire Line
	7250 2250 7000 2250
Wire Wire Line
	7250 2050 6900 2050
Wire Wire Line
	6900 2050 6900 2200
Wire Wire Line
	9450 1950 9700 1950
Wire Wire Line
	6050 3000 6300 3000
Wire Wire Line
	6050 3100 6300 3100
Wire Wire Line
	5550 3000 5300 3000
Wire Wire Line
	5550 3100 5300 3100
Wire Wire Line
	7750 3100 8000 3100
Wire Wire Line
	7750 3200 8000 3200
Wire Wire Line
	7750 3300 8000 3300
Wire Wire Line
	7750 3400 8000 3400
Wire Wire Line
	8950 3100 8700 3100
Wire Wire Line
	8950 3200 8700 3200
Wire Wire Line
	9450 3100 9700 3100
Wire Wire Line
	9400 3850 9700 3850
Wire Wire Line
	9400 3950 9700 3950
Wire Wire Line
	8350 3750 8600 3750
Wire Wire Line
	8600 3750 8600 3650
Wire Wire Line
	8600 3650 9700 3650
Connection ~ 9700 3650
Wire Wire Line
	8350 4050 8600 4050
Wire Wire Line
	8600 4050 8600 4150
Wire Wire Line
	8350 3850 8600 3850
Wire Wire Line
	8350 3950 8600 3950
Wire Wire Line
	3850 1650 4100 1650
Wire Wire Line
	3850 1750 4100 1750
Wire Wire Line
	3850 6400 4100 6400
Wire Wire Line
	3850 6300 4100 6300
Wire Wire Line
	3850 6200 4100 6200
Wire Wire Line
	3850 6100 4100 6100
Wire Wire Line
	3850 6000 4100 6000
Wire Wire Line
	3850 5900 4100 5900
Wire Wire Line
	3850 5800 4100 5800
Wire Wire Line
	3850 5700 4100 5700
Wire Wire Line
	1950 5050 1700 5050
Wire Wire Line
	1950 5150 1700 5150
Wire Wire Line
	1950 5250 1700 5250
Wire Wire Line
	1950 5350 1700 5350
Wire Wire Line
	3850 2350 4100 2350
Wire Wire Line
	3850 2250 4100 2250
Wire Wire Line
	3850 2150 4100 2150
Text Label 1850 5050 2    60   ~ 0
AG4
Text Label 1850 5150 2    60   ~ 0
AG5
Text Label 1850 5250 2    60   ~ 0
AG6
Text Label 1850 5350 2    60   ~ 0
AG7
Text Label 3950 2350 0    60   ~ 0
AG8
Text Label 3950 2250 0    60   ~ 0
AG9
Text Label 3950 2150 0    60   ~ 0
AG0
Wire Wire Line
	1950 5500 1700 5500
Wire Wire Line
	1950 5600 1700 5600
Wire Wire Line
	1950 5700 1700 5700
Wire Wire Line
	1950 5800 1700 5800
Wire Wire Line
	1950 5900 1700 5900
Wire Wire Line
	1950 6000 1700 6000
Wire Wire Line
	1950 6100 1700 6100
Wire Wire Line
	1950 6200 1700 6200
Text Label 1850 5500 2    60   ~ 0
SASINV
Text Label 1850 5600 2    60   ~ 0
ROTTRANS
Text Label 1850 5700 2    60   ~ 0
TRANSUP
Text Label 1850 5800 2    60   ~ 0
TRANSDOWN
Text Label 1850 5900 2    60   ~ 0
TRANSLEFT
Text Label 1850 6000 2    60   ~ 0
TRANSRIGHT
Text Label 1850 6100 2    60   ~ 0
RCS
Text Label 1850 6200 2    60   ~ 0
SAS
Wire Wire Line
	3850 4850 4100 4850
Wire Wire Line
	3850 4950 4100 4950
Wire Wire Line
	3850 5050 4100 5050
Wire Wire Line
	3850 5150 4100 5150
Wire Wire Line
	3850 5250 4100 5250
Wire Wire Line
	3850 5350 4100 5350
Wire Wire Line
	3850 5450 4100 5450
Wire Wire Line
	3850 5550 4100 5550
Text Label 3950 4850 0    60   ~ 0
TRANSFORE
Text Label 3950 4950 0    60   ~ 0
TRANSAFT
Text Label 3950 5050 0    60   ~ 0
GEAR
Text Label 3950 5150 0    60   ~ 0
BRAKE
Text Label 3950 5250 0    60   ~ 0
BRAKEINV
Text Label 3950 5350 0    60   ~ 0
LIGHTS
Text Label 3950 5450 0    60   ~ 0
DEMO
Text Label 3950 5550 0    60   ~ 0
ON
Text Label 9550 3950 0    60   ~ 0
DEMO
Wire Wire Line
	3850 3950 4100 3950
Wire Wire Line
	3850 3850 4100 3850
Wire Wire Line
	3850 2850 4100 2850
Text Label 3950 3950 0    60   ~ 0
THROTTLEDOWN
Text Label 3950 3850 0    60   ~ 0
THROTTLEUP
Text Label 3950 2850 0    60   ~ 0
THROTTLEEN
Wire Wire Line
	1950 3850 1700 3850
Wire Wire Line
	1950 3950 1700 3950
Text Label 1850 3850 2    60   ~ 0
THROTTLE
Text Label 1850 3950 2    60   ~ 0
AXIS
$Comp
L +5V #PWR013
U 1 1 582B1B3B
P 1700 2300
F 0 "#PWR013" H 1700 2150 50  0001 C CNN
F 1 "+5V" H 1700 2440 50  0000 C CNN
F 2 "" H 1700 2300 50  0000 C CNN
F 3 "" H 1700 2300 50  0000 C CNN
	1    1700 2300
	1    0    0    -1  
$EndComp
Wire Wire Line
	1950 2450 1700 2450
Wire Wire Line
	1700 2450 1700 2300
$Comp
L +5V #PWR014
U 1 1 582B1E04
P 4100 4450
F 0 "#PWR014" H 4100 4300 50  0001 C CNN
F 1 "+5V" H 4100 4590 50  0000 C CNN
F 2 "" H 4100 4450 50  0000 C CNN
F 3 "" H 4100 4450 50  0000 C CNN
	1    4100 4450
	1    0    0    -1  
$EndComp
Wire Wire Line
	3850 4600 4100 4600
Wire Wire Line
	4100 4450 4100 4700
Wire Wire Line
	4100 4700 3850 4700
Connection ~ 4100 4600
$Comp
L GND #PWR015
U 1 1 582B2043
P 1500 2400
F 0 "#PWR015" H 1500 2150 50  0001 C CNN
F 1 "GND" H 1500 2250 50  0000 C CNN
F 2 "" H 1500 2400 50  0000 C CNN
F 3 "" H 1500 2400 50  0000 C CNN
	1    1500 2400
	1    0    0    1   
$EndComp
Wire Wire Line
	1950 2550 1500 2550
Wire Wire Line
	1500 2400 1500 2650
Wire Wire Line
	1500 2650 1950 2650
Connection ~ 1500 2550
$Comp
L VIn #PWR016
U 1 1 582B217B
P 1300 2600
F 0 "#PWR016" H 1300 2560 30  0001 C CNN
F 1 "VIn" H 1300 2710 30  0000 C CNN
F 2 "" H 1300 2600 60  0000 C CNN
F 3 "" H 1300 2600 60  0000 C CNN
	1    1300 2600
	1    0    0    -1  
$EndComp
Wire Wire Line
	1300 2750 1300 2600
$Comp
L GND #PWR017
U 1 1 582B2461
P 1700 4650
F 0 "#PWR017" H 1700 4400 50  0001 C CNN
F 1 "GND" H 1700 4500 50  0000 C CNN
F 2 "" H 1700 4650 50  0000 C CNN
F 3 "" H 1700 4650 50  0000 C CNN
	1    1700 4650
	1    0    0    1   
$EndComp
Wire Wire Line
	1700 4650 1700 4900
Connection ~ 1700 4800
$Comp
L GND #PWR018
U 1 1 582B2658
P 4300 1850
F 0 "#PWR018" H 4300 1600 50  0001 C CNN
F 1 "GND" H 4300 1700 50  0000 C CNN
F 2 "" H 4300 1850 50  0000 C CNN
F 3 "" H 4300 1850 50  0000 C CNN
	1    4300 1850
	1    0    0    1   
$EndComp
Wire Wire Line
	3850 1950 4300 1950
Wire Wire Line
	4300 1950 4300 1850
NoConn ~ 1950 2050
NoConn ~ 1950 2150
NoConn ~ 1950 2250
NoConn ~ 1950 2350
NoConn ~ 1950 2950
NoConn ~ 1950 3050
NoConn ~ 1950 3150
NoConn ~ 1950 3350
NoConn ~ 1950 3450
NoConn ~ 1950 3550
NoConn ~ 1950 3650
NoConn ~ 1950 4050
NoConn ~ 1950 4150
NoConn ~ 1950 4350
NoConn ~ 1950 4450
NoConn ~ 1950 4550
NoConn ~ 1950 4250
NoConn ~ 1950 6350
NoConn ~ 1950 6450
NoConn ~ 1950 6550
NoConn ~ 1950 6650
NoConn ~ 3850 4350
NoConn ~ 3850 4250
NoConn ~ 3850 4150
NoConn ~ 3850 4050
NoConn ~ 3850 3750
NoConn ~ 3850 3650
NoConn ~ 3850 3450
NoConn ~ 3850 3350
NoConn ~ 3850 3250
NoConn ~ 3850 3150
NoConn ~ 3850 3050
NoConn ~ 3850 2950
NoConn ~ 3850 2750
NoConn ~ 3850 2550
NoConn ~ 3850 2450
NoConn ~ 3850 2050
NoConn ~ 3850 1850
NoConn ~ 3850 1450
NoConn ~ 3850 1350
NoConn ~ 3850 1250
NoConn ~ 2750 1250
NoConn ~ 2750 1350
NoConn ~ 2750 1450
NoConn ~ 5550 2050
NoConn ~ 5550 2150
NoConn ~ 5550 2250
NoConn ~ 6050 2250
NoConn ~ 6050 2150
NoConn ~ 6050 2050
NoConn ~ 6050 1950
NoConn ~ 7250 1750
NoConn ~ 7250 1850
NoConn ~ 7250 1950
NoConn ~ 7250 2150
NoConn ~ 9450 1650
NoConn ~ 9450 1750
NoConn ~ 8950 1850
NoConn ~ 8950 1950
NoConn ~ 8950 2050
NoConn ~ 8950 2150
NoConn ~ 8950 2250
NoConn ~ 9450 3200
NoConn ~ 7250 3100
NoConn ~ 7250 3200
NoConn ~ 7250 3300
NoConn ~ 7250 3400
NoConn ~ 1950 3250
Wire Wire Line
	7750 3000 8000 3000
Wire Wire Line
	8000 3000 8000 2850
$Comp
L +5V #PWR019
U 1 1 582B3F40
P 6300 1400
F 0 "#PWR019" H 6300 1250 50  0001 C CNN
F 1 "+5V" H 6300 1540 50  0000 C CNN
F 2 "" H 6300 1400 50  0000 C CNN
F 3 "" H 6300 1400 50  0000 C CNN
	1    6300 1400
	1    0    0    -1  
$EndComp
Wire Wire Line
	6050 1550 6300 1550
Wire Wire Line
	6300 1550 6300 1400
$Comp
L +5V #PWR020
U 1 1 582B41FA
P 8700 2850
F 0 "#PWR020" H 8700 2700 50  0001 C CNN
F 1 "+5V" H 8700 2990 50  0000 C CNN
F 2 "" H 8700 2850 50  0000 C CNN
F 3 "" H 8700 2850 50  0000 C CNN
	1    8700 2850
	1    0    0    -1  
$EndComp
Wire Wire Line
	8950 3000 8700 3000
Wire Wire Line
	8700 3000 8700 2850
$Comp
L GND #PWR021
U 1 1 582B442C
P 9700 4200
F 0 "#PWR021" H 9700 3950 50  0001 C CNN
F 1 "GND" H 9700 4050 50  0000 C CNN
F 2 "" H 9700 4200 50  0000 C CNN
F 3 "" H 9700 4200 50  0000 C CNN
	1    9700 4200
	1    0    0    -1  
$EndComp
Wire Wire Line
	9700 4050 9700 4200
Wire Wire Line
	8600 4150 9700 4150
Connection ~ 9700 4150
Wire Wire Line
	1950 4800 1700 4800
Wire Wire Line
	1700 4900 1950 4900
Wire Wire Line
	1300 2750 1950 2750
Text Label 1700 2750 2    60   ~ 0
POWER
Text Label 2000 2450 2    60   ~ 0
POWER
$EndSCHEMATC
